module gitlab.com/hoppr/droppr

go 1.22.0

toolchain go1.23.1

require (
	github.com/CycloneDX/cyclonedx-go v0.9.1
	github.com/sirupsen/logrus v1.9.3
	github.com/spf13/cobra v1.8.1
	github.com/spf13/viper v1.19.0
	github.com/stretchr/testify v1.9.0
	helm.sh/helm/v3 v3.16.1
)

require (
	github.com/AdaLogics/go-fuzz-headers v0.0.0-20230811130428-ced1acdcaa24 // indirect
	github.com/Azure/go-ansiterm v0.0.0-20230124172434-306776ec8161 // indirect
	github.com/Masterminds/semver/v3 v3.3.0 // indirect
	github.com/Microsoft/go-winio v0.6.1 // indirect
	github.com/Microsoft/hcsshim v0.11.4 // indirect
	github.com/beorn7/perks v1.0.1 // indirect
	github.com/blang/semver/v4 v4.0.0 // indirect
	github.com/cespare/xxhash/v2 v2.3.0 // indirect
	github.com/containerd/containerd v1.7.12 // indirect
	github.com/containerd/log v0.1.0 // indirect
	github.com/containerd/stargz-snapshotter/estargz v0.14.3 // indirect
	github.com/davecgh/go-spew v1.1.2-0.20180830191138-d8f796af33cc // indirect
	github.com/distribution/reference v0.5.0 // indirect
	github.com/docker/cli v27.1.1+incompatible // indirect
	github.com/docker/docker-credential-helpers v0.7.0 // indirect
	github.com/docker/go-connections v0.5.0 // indirect
	github.com/docker/go-metrics v0.0.1 // indirect
	github.com/docker/go-units v0.5.0 // indirect
	github.com/emicklei/go-restful/v3 v3.11.0 // indirect
	github.com/felixge/httpsnoop v1.0.4 // indirect
	github.com/fsnotify/fsnotify v1.7.0 // indirect
	github.com/fxamacker/cbor/v2 v2.7.0 // indirect
	github.com/go-errors/errors v1.4.2 // indirect
	github.com/go-logr/logr v1.4.2 // indirect
	github.com/go-logr/stdr v1.2.2 // indirect
	github.com/go-openapi/jsonpointer v0.19.6 // indirect
	github.com/go-openapi/jsonreference v0.20.2 // indirect
	github.com/go-openapi/swag v0.22.4 // indirect
	github.com/gogo/protobuf v1.3.2 // indirect
	github.com/golang/protobuf v1.5.4 // indirect
	github.com/google/btree v1.0.1 // indirect
	github.com/google/gnostic-models v0.6.8 // indirect
	github.com/google/go-cmp v0.6.0 // indirect
	github.com/google/gofuzz v1.2.0 // indirect
	github.com/google/shlex v0.0.0-20191202100458-e7afc7fbc510 // indirect
	github.com/google/uuid v1.6.0 // indirect
	github.com/gorilla/mux v1.8.0 // indirect
	github.com/gregjones/httpcache v0.0.0-20180305231024-9cad4c3443a7 // indirect
	github.com/hashicorp/hcl v1.0.0 // indirect
	github.com/imdario/mergo v0.3.16 // indirect
	github.com/inconshreveable/mousetrap v1.1.0 // indirect
	github.com/josharian/intern v1.0.0 // indirect
	github.com/json-iterator/go v1.1.12 // indirect
	github.com/klauspost/compress v1.17.2 // indirect
	github.com/liggitt/tabwriter v0.0.0-20181228230101-89fcab3d43de // indirect
	github.com/magiconair/properties v1.8.7 // indirect
	github.com/mailru/easyjson v0.7.7 // indirect
	github.com/mitchellh/go-homedir v1.1.0 // indirect
	github.com/mitchellh/mapstructure v1.5.0 // indirect
	github.com/moby/locker v1.0.1 // indirect
	github.com/moby/term v0.5.0 // indirect
	github.com/modern-go/concurrent v0.0.0-20180306012644-bacd9c7ef1dd // indirect
	github.com/modern-go/reflect2 v1.0.2 // indirect
	github.com/monochromegane/go-gitignore v0.0.0-20200626010858-205db1a8cc00 // indirect
	github.com/munnerz/goautoneg v0.0.0-20191010083416-a7dc8b61c822 // indirect
	github.com/opencontainers/go-digest v1.0.0 // indirect
	github.com/opencontainers/image-spec v1.1.0 // indirect
	github.com/pelletier/go-toml/v2 v2.2.2 // indirect
	github.com/peterbourgon/diskv v2.0.1+incompatible // indirect
	github.com/pkg/errors v0.9.1 // indirect
	github.com/pmezard/go-difflib v1.0.1-0.20181226105442-5d4384ee4fb2 // indirect
	github.com/prometheus/client_golang v1.19.1 // indirect
	github.com/prometheus/client_model v0.6.1 // indirect
	github.com/prometheus/common v0.55.0 // indirect
	github.com/prometheus/procfs v0.15.1 // indirect
	github.com/sagikazarmark/locafero v0.4.0 // indirect
	github.com/sagikazarmark/slog-shim v0.1.0 // indirect
	github.com/sourcegraph/conc v0.3.0 // indirect
	github.com/spf13/afero v1.11.0 // indirect
	github.com/spf13/cast v1.7.0 // indirect
	github.com/spf13/pflag v1.0.5 // indirect
	github.com/subosito/gotenv v1.6.0 // indirect
	github.com/vbatts/tar-split v0.11.3 // indirect
	github.com/x448/float16 v0.8.4 // indirect
	github.com/xlab/treeprint v1.2.0 // indirect
	go.opentelemetry.io/contrib/instrumentation/net/http/otelhttp v0.53.0 // indirect
	go.opentelemetry.io/otel v1.28.0 // indirect
	go.opentelemetry.io/otel/metric v1.28.0 // indirect
	go.opentelemetry.io/otel/trace v1.28.0 // indirect
	go.starlark.net v0.0.0-20230525235612-a134d8f9ddca // indirect
	go.uber.org/atomic v1.9.0 // indirect
	go.uber.org/multierr v1.9.0 // indirect
	golang.org/x/exp v0.0.0-20230905200255-921286631fa9 // indirect
	golang.org/x/mod v0.17.0 // indirect
	golang.org/x/net v0.26.0 // indirect
	golang.org/x/oauth2 v0.21.0 // indirect
	golang.org/x/sync v0.8.0 // indirect
	golang.org/x/sys v0.23.0 // indirect
	golang.org/x/term v0.23.0 // indirect
	golang.org/x/text v0.17.0 // indirect
	golang.org/x/time v0.5.0 // indirect
	golang.org/x/tools v0.21.1-0.20240508182429-e35e4ccd0d2d // indirect
	google.golang.org/genproto/googleapis/rpc v0.0.0-20240701130421-f6361c86f094 // indirect
	google.golang.org/grpc v1.65.0 // indirect
	google.golang.org/protobuf v1.34.2 // indirect
	gopkg.in/evanphx/json-patch.v4 v4.12.0 // indirect
	gopkg.in/inf.v0 v0.9.1 // indirect
	gopkg.in/ini.v1 v1.67.0 // indirect
	gopkg.in/yaml.v2 v2.4.0 // indirect
	gopkg.in/yaml.v3 v3.0.1 // indirect
	k8s.io/api v0.31.0 // indirect
	k8s.io/apimachinery v0.31.0 // indirect
	k8s.io/cli-runtime v0.31.0 // indirect
	k8s.io/client-go v0.31.0 // indirect
	k8s.io/klog/v2 v2.130.1 // indirect
	k8s.io/kube-openapi v0.0.0-20240228011516-70dd3763d340 // indirect
	k8s.io/utils v0.0.0-20240711033017-18e509b52bc8 // indirect
	oras.land/oras-go v1.2.5 // indirect
	sigs.k8s.io/json v0.0.0-20221116044647-bc3834ca7abd // indirect
	sigs.k8s.io/kustomize/api v0.17.2 // indirect
	sigs.k8s.io/kustomize/kyaml v0.17.1 // indirect
	sigs.k8s.io/structured-merge-diff/v4 v4.4.1 // indirect
	sigs.k8s.io/yaml v1.4.0 // indirect
)

require (
	github.com/docker/distribution v2.8.3+incompatible // indirect
	github.com/docker/docker v25.0.6+incompatible
	github.com/golang-demos/chalk v1.1.3
	github.com/google/go-containerregistry v0.20.2
)
